darkraki-main/sim/darksocv.vcd
$date
	Tue Oct 15 09:38:14 2024
$end
$version
	Icarus Verilog
$end
$timescale
	1s
$end
$scope module darksimv $end
$var wire 1 ! RX $end
$var wire 1 " TX $end
$var reg 1 # CLK $end
$var reg 1 $ RES $end
$var integer 32 % a [31:0] $end
$scope module soc0 $end
$var wire 1 & DEBUG $end
$var wire 1 ! UART_RXD $end
$var wire 1 " UART_TXD $end
$var wire 1 # iCLK $end
$var wire 32 ' iRAM_DATA [31:0] $end
$var wire 32 ( iROM_DATA [31:0] $end
$var wire 1 ) iRST $end
$var wire 32 * oREG32 [31:0] $end
$var wire 1 + ram_rd $end
$var wire 1 , ram_wr $end
$var wire 1 - rom_ce $end
$var wire 1 . rom_rd $end
$var wire 32 / rom_data [31:0] $end
$var wire 32 0 rom_address [31:0] $end
$var wire 32 1 ram_write_data [31:0] $end
$var wire 32 2 ram_read_data [31:0] $end
$var wire 1 3 ram_ce $end
$var wire 32 4 ram_address [31:0] $end
$var wire 1 5 irq $end
$var wire 1 6 finishreq $end
$var wire 32 7 datao [31:0] $end
$scope module core0 $end
$var wire 1 8 a_ram_ce $end
$var wire 32 9 a_ram_data_write [31:0] $end
$var wire 1 : a_ram_rd $end
$var wire 1 ; a_ram_wr $end
$var wire 1 < b_ram_ce $end
$var wire 1 = b_ram_rd $end
$var wire 1 > b_ram_wr $end
$var wire 32 ? c_ram_address [31:0] $end
$var wire 1 @ c_ram_ce $end
$var wire 32 A c_ram_data_write [31:0] $end
$var wire 1 B c_ram_rd $end
$var wire 1 C c_ram_wr $end
$var wire 5 D c_rd [4:0] $end
$var wire 32 E c_reg_in [31:0] $end
$var wire 5 F e_rd [4:0] $end
$var wire 32 G e_reg_in [31:0] $end
$var wire 1 # iCLK $end
$var wire 1 ) iRST $end
$var wire 32 H ir [31:0] $end
$var wire 1 + oRAM_RD $end
$var wire 1 , oRAM_WR $end
$var wire 32 I oROM_ADDR [31:0] $end
$var wire 1 - oROM_CE $end
$var wire 1 . oROM_RD $end
$var wire 5 J x_rs2 [4:0] $end
$var wire 5 K x_rs1 [4:0] $end
$var wire 32 L x_reg_out2 [31:0] $end
$var wire 32 M x_reg_out1 [31:0] $end
$var wire 32 N x_reg_in [31:0] $end
$var wire 5 O x_rd [4:0] $end
$var wire 1 P stat $end
$var wire 1 Q ram_wr $end
$var wire 1 R ram_rd $end
$var wire 32 S pcbr_type_j [31:0] $end
$var wire 32 T pcbr_type_i [31:0] $end
$var wire 32 U pcbr_type_b [31:0] $end
$var wire 32 V pc [31:0] $end
$var wire 7 W opcode [6:0] $end
$var wire 32 X oRAM_DATA [31:0] $end
$var wire 1 3 oRAM_CE $end
$var wire 32 Y oRAM_ADDR [31:0] $end
$var wire 32 Z iROM_DATA [31:0] $end
$var wire 32 [ iRAM_DATA [31:0] $end
$var wire 32 \ f_reg_in [31:0] $end
$var wire 5 ] f_rd [4:0] $end
$var wire 5 ^ e_rs2 [4:0] $end
$var wire 5 _ e_rs1 [4:0] $end
$var wire 32 ` e_reg_out2 [31:0] $end
$var wire 32 a e_reg_out1 [31:0] $end
$var wire 32 b d_reg_out2 [31:0] $end
$var wire 32 c d_reg_out1 [31:0] $end
$var wire 32 d d_reg_in [31:0] $end
$var wire 5 e d_rd [4:0] $end
$var wire 5 f c_rs2 [4:0] $end
$var wire 5 g c_rs1 [4:0] $end
$var wire 32 h c_reg_out2 [31:0] $end
$var wire 32 i c_reg_out1 [31:0] $end
$var wire 32 j c_ram_data_read [31:0] $end
$var wire 5 k b_rs1 [4:0] $end
$var wire 32 l b_reg_out1 [31:0] $end
$var wire 32 m b_reg_in [31:0] $end
$var wire 5 n b_rd [4:0] $end
$var wire 32 o b_ram_data_write [31:0] $end
$var wire 32 p b_ram_data_read [31:0] $end
$var wire 32 q b_ram_address [31:0] $end
$var wire 5 r a_rs2 [4:0] $end
$var wire 5 s a_rs1 [4:0] $end
$var wire 32 t a_reg_out2 [31:0] $end
$var wire 32 u a_reg_out1 [31:0] $end
$var wire 32 v a_reg_in [31:0] $end
$var wire 5 w a_rd [4:0] $end
$var wire 32 x a_ram_data_read [31:0] $end
$var wire 32 y a_ram_address [31:0] $end
$var integer 32 z counter [31:0] $end
$scope module u1 $end
$var wire 1 # iCLK $end
$var wire 7 { iOpcode [6:0] $end
$var wire 1 ) iRST $end
$var wire 32 | oPC [31:0] $end
$var wire 32 } pcbranch [31:0] $end
$var wire 32 ~ pc_next [31:0] $end
$var wire 32 !" iPCBR_J [31:0] $end
$var wire 32 "" iPCBR_I [31:0] $end
$var wire 32 #" iPCBR_B [31:0] $end
$var reg 32 $" pc [31:0] $end
$upscope $end
$scope module u10 $end
$var wire 1 # iCLK $end
$var wire 32 %" iIR [31:0] $end
$var wire 32 &" iPC [31:0] $end
$var wire 32 '" oREG_IN [31:0] $end
$var wire 1 P status $end
$var wire 7 (" opcode [6:0] $end
$var wire 5 )" oRD [4:0] $end
$var wire 32 *" oPCBR [31:0] $end
$var wire 32 +" imm20 [31:0] $end
$var wire 32 ," alu_out [31:0] $end
$var reg 1 -" buffer1 $end
$var reg 1 ." buffer2 $end
$upscope $end
$scope module u2 $end
$var wire 1 # iCLK $end
$var wire 1 ) iRST $end
$var wire 32 /" oREG_OUT1 [31:0] $end
$var wire 32 0" oREG_OUT2 [31:0] $end
$var wire 5 1" iRS2 [4:0] $end
$var wire 5 2" iRS1 [4:0] $end
$var wire 32 3" iREG_IN [31:0] $end
$var wire 5 4" iRD [4:0] $end
$var integer 32 5" i [31:0] $end
$upscope $end
$scope module u3 $end
$var wire 1 # CLK $end
$var wire 7 6" iOpcode [6:0] $end
$var wire 5 7" i_B_RS2 [4:0] $end
$var wire 5 8" i_C_RD [4:0] $end
$var wire 32 9" i_C_REG_IN [31:0] $end
$var wire 5 :" i_D_RS1 [4:0] $end
$var wire 5 ;" i_D_RS2 [4:0] $end
$var wire 5 <" i_E_RD [4:0] $end
$var wire 32 =" i_E_REG_IN [31:0] $end
$var wire 5 >" i_E_RS1 [4:0] $end
$var wire 5 ?" i_E_RS2 [4:0] $end
$var wire 5 @" i_F_RD [4:0] $end
$var wire 32 A" i_F_REG_IN [31:0] $end
$var wire 5 B" i_F_RS1 [4:0] $end
$var wire 5 C" i_F_RS2 [4:0] $end
$var wire 32 D" i_X_REG_OUT1 [31:0] $end
$var wire 32 E" i_X_REG_OUT2 [31:0] $end
$var wire 5 F" o_X_RS2 [4:0] $end
$var wire 5 G" o_X_RS1 [4:0] $end
$var wire 32 H" o_X_REG_IN [31:0] $end
$var wire 5 I" o_X_RD [4:0] $end
$var wire 32 J" o_F_REG_OUT2 [31:0] $end
$var wire 32 K" o_F_REG_OUT1 [31:0] $end
$var wire 32 L" o_E_REG_OUT2 [31:0] $end
$var wire 32 M" o_E_REG_OUT1 [31:0] $end
$var wire 32 N" o_D_REG_OUT2 [31:0] $end
$var wire 32 O" o_D_REG_OUT1 [31:0] $end
$var wire 32 P" o_C_REG_OUT2 [31:0] $end
$var wire 32 Q" o_C_REG_OUT1 [31:0] $end
$var wire 32 R" o_B_REG_OUT2 [31:0] $end
$var wire 32 S" o_B_REG_OUT1 [31:0] $end
$var wire 32 T" o_A_REG_OUT2 [31:0] $end
$var wire 32 U" o_A_REG_OUT1 [31:0] $end
$var wire 32 V" i_D_REG_IN [31:0] $end
$var wire 5 W" i_D_RD [4:0] $end
$var wire 5 X" i_C_RS2 [4:0] $end
$var wire 5 Y" i_C_RS1 [4:0] $end
$var wire 5 Z" i_B_RS1 [4:0] $end
$var wire 32 [" i_B_REG_IN [31:0] $end
$var wire 5 \" i_B_RD [4:0] $end
$var wire 5 ]" i_A_RS2 [4:0] $end
$var wire 5 ^" i_A_RS1 [4:0] $end
$var wire 32 _" i_A_REG_IN [31:0] $end
$var wire 5 `" i_A_RD [4:0] $end
$upscope $end
$scope module u4 $end
$var wire 1 # CLK $end
$var wire 1 Q RAM_WR $end
$var wire 7 a" iOpcode [6:0] $end
$var wire 1 8 i_A_RAM_CE $end
$var wire 32 b" i_A_RAM_DATA_WR [31:0] $end
$var wire 1 : i_A_RAM_RD $end
$var wire 1 ; i_A_RAM_WR $end
$var wire 1 < i_B_RAM_CE $end
$var wire 1 = i_B_RAM_RD $end
$var wire 1 > i_B_RAM_WR $end
$var wire 32 c" i_C_RAM_ADDR [31:0] $end
$var wire 1 @ i_C_RAM_CE $end
$var wire 32 d" i_C_RAM_DATA_WR [31:0] $end
$var wire 1 B i_C_RAM_RD $end
$var wire 1 C i_C_RAM_WR $end
$var wire 1 3 o_X_RAM_CE $end
$var wire 1 + o_X_RAM_RD $end
$var wire 1 , o_X_RAM_WR $end
$var wire 32 e" o_X_RAM_DATA_WR [31:0] $end
$var wire 32 f" o_X_RAM_ADDR [31:0] $end
$var wire 32 g" o_C_RAM_DATA_RD [31:0] $end
$var wire 32 h" o_B_RAM_DATA_RD [31:0] $end
$var wire 32 i" o_A_RAM_DATA_RD [31:0] $end
$var wire 32 j" i_X_RAM_DATA_RD [31:0] $end
$var wire 32 k" i_B_RAM_DATA_WR [31:0] $end
$var wire 32 l" i_B_RAM_ADDR [31:0] $end
$var wire 32 m" i_A_RAM_ADDR [31:0] $end
$var wire 1 R RAM_RD $end
$upscope $end
$scope module u5 $end
$var wire 32 n" alu_in1 [31:0] $end
$var wire 32 o" alu_in2 [31:0] $end
$var wire 1 # iCLK $end
$var wire 32 p" iIR [31:0] $end
$var wire 32 q" iREG_OUT1 [31:0] $end
$var wire 32 r" iREG_OUT2 [31:0] $end
$var wire 32 s" oREG_IN [31:0] $end
$var wire 5 t" oRS2 [4:0] $end
$var wire 5 u" oRS1 [4:0] $end
$var wire 5 v" oRD [4:0] $end
$var wire 7 w" func7 [6:0] $end
$var wire 10 x" func37 [9:0] $end
$var wire 3 y" func3 [2:0] $end
$var wire 32 z" alu_out [31:0] $end
$upscope $end
$scope module u6 $end
$var wire 32 {" alu_in1 [31:0] $end
$var wire 1 # iCLK $end
$var wire 32 |" iIR [31:0] $end
$var wire 32 }" iPC [31:0] $end
$var wire 32 ~" iRAM_DATA [31:0] $end
$var wire 32 !# iREG_OUT1 [31:0] $end
$var wire 32 "# oRAM_ADDR [31:0] $end
$var wire 1 8 oRAM_CE $end
$var wire 1 : oRAM_RD $end
$var wire 1 ; oRAM_WR $end
$var wire 32 ## ram_data [31:0] $end
$var wire 16 $# ram_data_half [15:0] $end
$var wire 8 %# ram_data_byte [7:0] $end
$var wire 32 &# ram_address [31:0] $end
$var wire 7 '# opcode [6:0] $end
$var wire 5 (# oRS1 [4:0] $end
$var wire 32 )# oREG_IN [31:0] $end
$var wire 5 *# oRD [4:0] $end
$var wire 32 +# oPCBR [31:0] $end
$var wire 12 ,# imm12 [11:0] $end
$var wire 3 -# func3 [2:0] $end
$var wire 32 .# alu_out_i3 [31:0] $end
$var wire 32 /# alu_out_i2 [31:0] $end
$var wire 32 0# alu_out_i1 [31:0] $end
$var wire 32 1# alu_in2 [31:0] $end
$upscope $end
$scope module u7 $end
$var wire 32 2# alu_in1 [31:0] $end
$var wire 32 3# alu_in2 [31:0] $end
$var wire 1 # iCLK $end
$var wire 32 4# iIR [31:0] $end
$var wire 32 5# iRAM_DATA [31:0] $end
$var wire 32 6# iREG_OUT1 [31:0] $end
$var wire 32 7# iREG_OUT2 [31:0] $end
$var wire 32 8# oRAM_ADDR [31:0] $end
$var wire 1 < oRAM_CE $end
$var wire 1 9# oRAM_WR $end
$var wire 5 :# oRD [4:0] $end
$var wire 32 ;# oREG_IN [31:0] $end
$var wire 32 <# ram_data_rd [31:0] $end
$var wire 32 =# ram_data_word_wr [31:0] $end
$var wire 32 ># ram_data_half_wr [31:0] $end
$var wire 32 ?# ram_data_byte_wr [31:0] $end
$var wire 32 @# ram_address [31:0] $end
$var wire 5 A# oRS2 [4:0] $end
$var wire 5 B# oRS1 [4:0] $end
$var wire 32 C# oRAM_DATA [31:0] $end
$var wire 7 D# imm7 [6:0] $end
$var wire 5 E# imm5 [4:0] $end
$var wire 12 F# imm12 [11:0] $end
$var wire 3 G# func3 [2:0] $end
$upscope $end
$scope module u8 $end
$var wire 1 # iCLK $end
$var wire 32 H# iIR [31:0] $end
$var wire 32 I# iPC [31:0] $end
$var wire 32 J# iRAM_DATA [31:0] $end
$var wire 32 K# oRAM_ADDR [31:0] $end
$var wire 1 @ oRAM_CE $end
$var wire 32 L# oRAM_DATA [31:0] $end
$var wire 1 C oRAM_WR $end
$var wire 32 M# oREG_IN [31:0] $end
$var wire 7 N# opcode [6:0] $end
$var wire 5 O# oRD [4:0] $end
$var wire 20 P# imm20 [19:0] $end
$var wire 32 Q# alu_out [31:0] $end
$upscope $end
$scope module u9 $end
$var wire 32 R# alu_in1 [31:0] $end
$var wire 32 S# alu_in2 [31:0] $end
$var wire 1 # iCLK $end
$var wire 32 T# iIR [31:0] $end
$var wire 32 U# iREG_OUT1 [31:0] $end
$var wire 32 V# iREG_OUT2 [31:0] $end
$var wire 32 W# oPCBR [31:0] $end
$var wire 1 P status $end
$var wire 5 X# oRS2 [4:0] $end
$var wire 5 Y# oRS1 [4:0] $end
$var wire 6 Z# imm7b [5:0] $end
$var wire 1 [# imm7a $end
$var wire 7 \# imm7 [6:0] $end
$var wire 4 ]# imm5b [3:0] $end
$var wire 1 ^# imm5a $end
$var wire 5 _# imm5 [4:0] $end
$var wire 32 `# imm12 [31:0] $end
$var wire 3 a# func3 [2:0] $end
$var wire 32 b# alu_out [31:0] $end
$upscope $end
$upscope $end
$scope module u1 $end
$var wire 32 c# iROM_ADDR [31:0] $end
$var wire 1 - iROM_CE $end
$var wire 1 # iROM_CLK $end
$var wire 1 . iROM_RD $end
$var wire 32 d# tmp_data [31:0] $end
$var wire 32 e# tmp_addr [31:0] $end
$var wire 32 f# oROM_DATA [31:0] $end
$var wire 1 g# is_mem_valid $end
$upscope $end
$scope module u11 $end
$var wire 4 h# BE [3:0] $end
$var wire 1 # CLK $end
$var wire 1 . RD $end
$var wire 1 ) RES $end
$var wire 1 ! RXD $end
$var wire 1 " TXD $end
$var wire 1 , WR $end
$var wire 8 i# UART_STATE [7:0] $end
$var wire 1 5 IRQ $end
$var wire 4 j# DEBUG [3:0] $end
$var wire 32 k# DATAO [31:0] $end
$var wire 32 l# DATAI [31:0] $end
$var reg 32 m# DATAOFF [31:0] $end
$var reg 1 6 FINISH_REQ $end
$var reg 2 n# IOACK [1:0] $end
$var reg 2 o# IOREQ [1:0] $end
$var reg 1 p# UART_IACK $end
$var reg 1 q# UART_IREQ $end
$var reg 1 r# UART_RACK $end
$var reg 16 s# UART_RBAUD [15:0] $end
$var reg 8 t# UART_RFIFO [7:0] $end
$var reg 1 u# UART_RREQ $end
$var reg 4 v# UART_RSTATE [3:0] $end
$var reg 3 w# UART_RXDFF [2:0] $end
$var reg 8 x# UART_STATEFF [7:0] $end
$var reg 16 y# UART_TIMER [15:0] $end
$var reg 1 z# UART_XACK $end
$var reg 16 {# UART_XBAUD [15:0] $end
$var reg 8 |# UART_XFIFO [7:0] $end
$var reg 1 }# UART_XREQ $end
$var reg 4 ~# UART_XSTATE [3:0] $end
$upscope $end
$scope module u2 $end
$var wire 32 !$ iRAM_ADDR [31:0] $end
$var wire 1 3 iRAM_CE $end
$var wire 1 # iRAM_CLK $end
$var wire 32 "$ iRAM_DATA [31:0] $end
$var wire 1 + iRAM_RD $end
$var wire 1 #$ iRAM_RST $end
$var wire 1 , iRAM_WR $end
$var wire 32 $$ tmp_data [31:0] $end
$var wire 8 %$ tmp_addr [7:0] $end
$var wire 32 &$ oRAM_DATA [31:0] $end
$var wire 1 '$ is_mem_valid $end
$upscope $end
$upscope $end
$upscope $end
$enddefinitions $end
#0
$dumpvars
0'$
b0 &$
b0 %$
b0x0x0x0000xx00x0000x000000000000 $$
z#$
b0 "$
b0 !$
b0 ~#
0}#
b0 |#
b0 {#
0z#
b1101100100 y#
b0 x#
b111 w#
b0 v#
0u#
b0 t#
b0 s#
0r#
0q#
0p#
b0 o#
b0 n#
b0 m#
b0 l#
b11011001000000000000000000 k#
b1111 j#
b0 i#
bz h#
1g#
b100000000011010010011 f#
b0 e#
b100000000011010010011 d#
b0 c#
b100000001100 b#
b0 a#
b100000001100 `#
b10000 _#
1^#
b0 ]#
b110100 \#
0[#
b110100 Z#
b0 Y#
b1 X#
b100000001100 W#
b0 V#
b0 U#
b100000000011010010011 T#
b0 S#
b0 R#
b0 Q#
b100000000 P#
b1101 O#
b10011 N#
b0 M#
bz L#
bz K#
b0 J#
b0 I#
b100000000011010010011 H#
b0 G#
b1101 F#
b1101 E#
b0 D#
b0 C#
b0 B#
b1 A#
b1101 @#
b0 ?#
b0 >#
b0 =#
b0 <#
b0 ;#
b0 :#
19#
b1101 8#
b0 7#
b0 6#
b0 5#
b100000000011010010011 4#
b0 3#
b0 2#
b1 1#
b1 0#
b0 /#
b100 .#
b0 -#
b1 ,#
b1000000000000 +#
b1101 *#
b1 )#
b0 (#
b10011 '#
b1 &#
b0 %#
b0 $#
b0 ##
b1 "#
b0 !#
b0 ~"
b0 }"
b100000000011010010011 |"
b0 {"
b0 z"
b0 y"
b0 x"
b0 w"
b1101 v"
b0 u"
b1 t"
b0 s"
b0 r"
b0 q"
b100000000011010010011 p"
b0 o"
b0 n"
b1 m"
b1101 l"
b0 k"
b0 j"
b0 i"
b0 h"
b0 g"
b0 f"
b0 e"
bz d"
bz c"
bz b"
b10011 a"
b1101 `"
b0 _"
b0 ^"
b1 ]"
b1101 \"
b1 ["
b0 Z"
b0 Y"
b1 X"
b1101 W"
b0 V"
b0 U"
b0 T"
b0 S"
b0 R"
b0 Q"
b0 P"
b0 O"
b0 N"
b0 M"
b0 L"
b0 K"
b0 J"
b1101 I"
b1 H"
b0 G"
b0 F"
b0 E"
b0 D"
b0 C"
b0 B"
b100 A"
b1101 @"
b0 ?"
b0 >"
bz ="
bz <"
b0 ;"
b0 :"
b0 9"
b0 8"
b0 7"
b10011 6"
b100000 5"
b1101 4"
b1 3"
b0 2"
b0 1"
b0 0"
b0 /"
x."
x-"
b100 ,"
b100000000000 +"
b10000000x000 *"
b1101 )"
b10011 ("
b100 '"
b0 &"
b100000000011010010011 %"
b0 $"
b100000001100 #"
b1000000000000 ""
b10000000x000 !"
b100 ~
b0 }
b0 |
b10011 {
b0 z
b1 y
b0 x
b1101 w
b0 v
b0 u
b0 t
b0 s
b1 r
b1101 q
b0 p
b0 o
b1101 n
b1 m
b0 l
b0 k
b0 j
b0 i
b0 h
b0 g
b1 f
b1101 e
b0 d
b0 c
b0 b
b0 a
b0 `
b0 _
b1 ^
b1101 ]
b100 \
b0 [
b100000000011010010011 Z
b0 Y
b0 X
b10011 W
b0 V
b100000001100 U
b1000000000000 T
b10000000x000 S
0R
1Q
0P
b1101 O
b1 N
b0 M
b0 L
b0 K
b0 J
b0 I
b100000000011010010011 H
bz G
bz F
b0 E
b0 D
zC
zB
bz A
z@
bz ?
z>
z=
1<
0;
1:
bz 9
18
b11011001000000000000000000 7
06
05
b0 4
13
b0 2
b0 1
b0 0
b100000000011010010011 /
1.
1-
x,
x+
bz *
1)
bz (
bz '
z&
b0 %
1$
0#
1"
1!
$end
#1
b0 N
b0 3"
b0 H"
b1100 O
b1100 4"
b1100 I"
b0 m
b0 ["
b0 )#
b1100 U
b1100 #"
b1100 W#
b1100 b#
b0 0#
b1100 ]
b1100 )"
b1100 @"
b0 +"
b1100 w
b1100 `"
b1100 v"
b0 r
b0 ]"
b0 t"
b1100 n
b1100 \"
b1100 *#
b0 y
b0 m"
b0 "#
b0 &#
b0 1#
b0 ,#
b0 f
b0 X"
b0 A#
b1100 q
b1100 l"
b1100 8#
b1100 @#
b1100 F#
b1100 E#
b1100 e
b1100 W"
b1100 O#
b0 P#
b0 ^
b0 X#
b110000 \#
b110000 Z#
b1100 `#
b11000010011 H
b11000010011 %"
b11000010011 p"
b11000010011 |"
b11000010011 4#
b11000010011 H#
b11000010011 T#
b11000010011 /
b11000010011 Z
b11000010011 f#
b11000010011 d#
b1000 ~
b1 e#
b0 S
b0 !"
b0 *"
x"
b1000 \
b1000 '"
b1000 A"
b1000 ,"
b1000 .#
b100 T
b100 ""
b100 +#
b100 0
b100 I
b100 c#
b100 V
b100 |
b100 &"
b100 }"
b100 I#
b100 $"
0-"
b110 ~#
b1101100100 {#
b1x00 j#
b110 v#
b1101100100 s#
b100000 5"
b1 z
1#
#2
0#
b1 %
#3
b1 N
b1 3"
b1 H"
b1111 O
b1111 4"
b1111 I"
b1 m
b1 ["
b1 )#
b100000001110 U
b100000001110 #"
b100000001110 W#
b100000001110 b#
b100000000000 S
b100000000000 !"
b100000000000 *"
b1 0#
b1111 ]
b1111 )"
b1111 @"
b100000000000 +"
b1111 w
b1111 `"
b1111 v"
b1 r
b1 ]"
b1 t"
b1111 n
b1111 \"
b1111 *#
b1 y
b1 m"
b1 "#
b1 &#
b1 1#
b1 ,#
b1 f
b1 X"
b1 A#
b1111 q
b1111 l"
b1111 8#
b1111 @#
b1111 F#
b1111 E#
b1111 e
b1111 W"
b1111 O#
b100000000 P#
b1 ^
b1 X#
b111100 \#
b111100 Z#
b100000001110 `#
b100000000011110010011 H
b100000000011110010011 %"
b100000000011110010011 p"
b100000000011110010011 |"
b100000000011110010011 4#
b100000000011110010011 H#
b100000000011110010011 T#
b100000000011110010011 /
b100000000011110010011 Z
b100000000011110010011 f#
b100000000011110010011 d#
b1100 ~
b10 e#
b1100 \
b1100 '"
b1100 A"
b1100 ,"
b1100 .#
b1000000001000 T
b1000000001000 ""
b1000000001000 +#
b1000 0
b1000 I
b1000 c#
b1000 V
b1000 |
b1000 &"
b1000 }"
b1000 I#
b1000 $"
b110110010 s#
0."
b100000 5"
b10 z
1#
#4
0#
b10 %
#5
b10 N
b10 3"
b10 H"
b1011 O
b1011 4"
b1011 I"
b10 m
b10 ["
b10 )#
b100000001010 U
b100000001010 #"
b100000001010 W#
b100000001010 b#
b10 S
b10 !"
b10 *"
b10 0#
b1011 ]
b1011 )"
b1011 @"
b10 +"
b1011 w
b1011 `"
b1011 v"
b10 r
b10 ]"
b10 t"
b1011 n
b1011 \"
b1011 *#
b10 y
b10 m"
b10 "#
b10 &#
b10 1#
b10 ,#
b10 f
b10 X"
b10 A#
b1011 q
b1011 l"
b1011 8#
b1011 @#
b1011 F#
b1011 E#
b1011 e
b1011 W"
b1011 O#
b1000000000 P#
b10 ^
b10 X#
b101100 \#
b101100 Z#
b100000001010 `#
b1000000000010110010011 H
b1000000000010110010011 %"
b1000000000010110010011 p"
b1000000000010110010011 |"
b1000000000010110010011 4#
b1000000000010110010011 H#
b1000000000010110010011 T#
b1000000000010110010011 /
b1000000000010110010011 Z
b1000000000010110010011 f#
b1000000000010110010011 d#
b10000 ~
b11 e#
b10000 \
b10000 '"
b10000 A"
b10000 ,"
b10000 .#
b10000000001100 T
b10000000001100 ""
b10000000001100 +#
b1100 0
b1100 I
b1100 c#
b1100 V
b1100 |
b1100 &"
b1100 }"
b1100 I#
b1100 $"
b100000 5"
b11 z
1#
#6
0#
b11 %
#7
b1111 N
b1111 3"
b1111 H"
b10000 O
b10000 4"
b10000 I"
b1111 m
b1111 ["
b1111 )#
b10000 U
b10000 #"
b10000 W#
b10000 b#
b100000001110 S
b100000001110 !"
b100000001110 *"
b1111 0#
b10000 ]
b10000 )"
b10000 @"
b100000001110 +"
b10000 w
b10000 `"
b10000 v"
b1111 r
b1111 ]"
b1111 t"
b10000 n
b10000 \"
b10000 *#
b1111 y
b1111 m"
b1111 "#
b1111 &#
b1111 1#
b1111 ,#
b1111 f
b1111 X"
b1111 A#
b10000 q
b10000 l"
b10000 8#
b10000 @#
b10000 F#
b10000 E#
b10000 e
b10000 W"
b10000 O#
b111100000000 P#
b10001 _#
b1 ]#
b1111 ^
b1111 X#
b0 \#
b0 Z#
b10000 `#
b111100000000100000010011 H
b111100000000100000010011 %"
b111100000000100000010011 p"
b111100000000100000010011 |"
b111100000000100000010011 4#
b111100000000100000010011 H#
b111100000000100000010011 T#
b111100000000100000010011 /
b111100000000100000010011 Z
b111100000000100000010011 f#
b111100000000100000010011 d#
b10100 ~
b100 e#
b10100 \
b10100 '"
b10100 A"
b10100 ,"
b10100 .#
b1111000000010000 T
b1111000000010000 ""
b1111000000010000 +#
b10000 0
b10000 I
b10000 c#
b10000 V
b10000 |
b10000 &"
b10000 }"
b10000 I#
b10000 $"
b100000 5"
b100 z
1#
#8
0#
b100 %
#9
b10 N
b10 3"
b10 H"
b1 {"
b1 l
b1 S"
b1 !#
b1110 O
b1110 4"
b1110 I"
b1 M
b1 /"
b1 D"
b1111 K
b1111 2"
b1111 G"
b10 m
b10 ["
b10 )#
b1110 U
b1110 #"
b1110 W#
b1110 b#
b1111000100000000000 S
b1111000100000000000 !"
b1111000100000000000 *"
b10 0#
b1110 ]
b1110 )"
b1110 @"
b1111000100000000000 +"
b1110 w
b1110 `"
b1110 v"
b1111 s
b1111 ^"
b1111 u"
b1 r
b1 ]"
b1 t"
b1110 n
b1110 \"
b1110 *#
b1111 k
b1111 Z"
b1111 (#
b10 y
b10 m"
b10 "#
b10 &#
b1 1#
b1 ,#
b1111 g
b1111 Y"
b1111 B#
b1 f
b1 X"
b1 A#
b1110 q
b1110 l"
b1110 8#
b1110 @#
b1110 F#
b1110 E#
b1110 e
b1110 W"
b1110 O#
b101111000 P#
b10000 _#
b0 ]#
b1111 _
b1111 Y#
b1 ^
b1 X#
b111000 \#
b111000 Z#
b1110 `#
b101111000011100010011 H
b101111000011100010011 %"
b101111000011100010011 p"
b101111000011100010011 |"
b101111000011100010011 4#
b101111000011100010011 H#
b101111000011100010011 T#
b101111000011100010011 /
b101111000011100010011 Z
b101111000011100010011 f#
b101111000011100010011 d#
b11000 ~
b101 e#
b11000 \
b11000 '"
b11000 A"
b11000 ,"
b11000 .#
b1000000010100 T
b1000000010100 ""
b1000000010100 +#
b10100 0
b10100 I
b10100 c#
b10100 V
b10100 |
b10100 &"
b10100 }"
b10100 I#
b10100 $"
b100000 5"
b101 z
1#
#10
0#
b101 %
#11
b10100 }
bz N
bz 3"
bz H"
b0 {"
b0 l
b0 S"
b0 !#
bz O
bz 4"
bz I"
b0 M
b0 /"
b0 D"
b0 K
b0 2"
b0 G"
b0 R#
b0 a
b0 M"
b0 U#
b1011111100000001110 S
b1011111100000001110 !"
b1011111100000001110 *"
b0 m
b0 ["
b0 )#
b0 0#
b10100 U
b10100 #"
b10100 W#
b10100 b#
b1100011 W
b1100011 {
b1100011 6"
b1100011 a"
b1100011 ("
b10100 ]
b10100 )"
b10100 @"
b1011111100000001110 +"
b10100 w
b10100 `"
b10100 v"
b1011 s
b1011 ^"
b1011 u"
b1111 r
b1111 ]"
b1111 t"
b1110000000 x"
b111 y"
b1100011 '#
b10100 n
b10100 \"
b10100 *#
b111 -#
b1011 k
b1011 Z"
b1011 (#
b1111 y
b1111 m"
b1111 "#
b1111 &#
b1111 1#
b1111 ,#
b1011 g
b1011 Y"
b1011 B#
b1111 f
b1111 X"
b1111 A#
b10100 q
b10100 l"
b10100 8#
b10100 @#
b10100 F#
b10100 E#
b111 G#
b1100011 N#
b10100 e
b10100 W"
b10100 O#
b111101011111 P#
b10001 _#
b1 ]#
b111 a#
b1011 _
b1011 Y#
b1111 ^
b1111 X#
1[#
b1010011 \#
b10011 Z#
b10100 `#
b111101011111101001100011 H
b111101011111101001100011 %"
b111101011111101001100011 p"
b111101011111101001100011 |"
b111101011111101001100011 4#
b111101011111101001100011 H#
b111101011111101001100011 T#
b111101011111101001100011 /
b111101011111101001100011 Z
b111101011111101001100011 f#
b111101011111101001100011 d#
b101100 ~
b110 e#
b11100 \
b11100 '"
b11100 A"
b11100 ,"
b11100 .#
b1111000000011000 T
b1111000000011000 ""
b1111000000011000 +#
b11000 0
b11000 I
b11000 c#
b11000 V
b11000 |
b11000 &"
b11000 }"
b11000 I#
b11000 $"
b100000 5"
b110 z
1#
#12
0#
b110 %
